Week #1: dplyr, tidyr, & ggplot2
…
library(tibble)

Dataset #1: wide to long

wide_to_long <- mydata_wide %>%
  gather(-ID2, key = "timepoint", value = "value") %>%
  separate(timepoint, into = c("Omit", "Time", "Omit2", "Variable"), sep = c(1,2, 3)) %>%
  select(-Omit, -Omit2) %>%
  spread(key = Variable, value = value)

wide_to_long <- wide_to_long[1:201, ]
wide_to_long <- as_tibble(wide_to_long)
wide_to_long

## # A tibble: 201 x 16
##      ID2  Time all_TC all_TU animal_TotalCorrect animal_TotalUtterances
##  * <int> <chr>  <dbl>  <dbl>               <dbl>                  <dbl>
##  1 10588     1  23.75  26.50                  34                     37
##  2 10588     2  28.00  31.50                  29                     33
##  3 10588     3     NA     NA                  NA                     NA
##  4 16800     1  11.25  12.50                  12                     12
##  5 16800     2  16.75  20.50                  18                     22
##  6 16800     3  26.50  34.00                  17                     20
##  7 17555     1  20.25  22.50                  17                     19
##  8 17555     2  17.75  20.25                  15                     17
##  9 17555     3  40.00  45.00                  21                     25
## 10 17910     1  14.25  17.75                  19                     22
## # ... with 191 more rows, and 10 more variables: f_TotalCorrect <dbl>,
## #   f_TotalUtterances <dbl>, food_TotalCorrect <dbl>,
## #   food_TotalUtterances <dbl>, pho_TC <dbl>, pho_TU <dbl>,
## #   S_TotalCorrect <dbl>, S_TotalUtterances <dbl>, sem_TC <dbl>,
## #   sem_TU <dbl>

Dataset #2: long to wide

long_to_wide <- mydata_long %>%
  gather(-(ID2:TP), key = "variable", value = "value") %>%
  unite(varT, variable, TP) %>%
  spread(key = varT, value = value) %>%
  select(-Baseline_2, -Baseline_3) %>%
  rename("Baseline" = "Baseline_1")
long_to_wide <- as_tibble(long_to_wide)
long_to_wide

## # A tibble: 67 x 56
##      ID2 Age_1 Age_2 Age_3 Animal_MClusterSize_1 Animal_MClusterSize_2
##  * <int> <dbl> <dbl> <dbl>                 <dbl>                 <dbl>
##  1 10588    19    20    NA              2.500000              2.875000
##  2 16800     9    10    11              2.400000              2.000000
##  3 17555    18    18    20              1.285714              1.400000
##  4 17910    12    13    14              1.833333              2.571429
##  5 18709    13    14    16              2.750000              1.750000
##  6 22162    13    14    16              1.800000              1.000000
##  7 25082    10    11    13              2.200000              1.000000
##  8 30025    10    11    12              2.000000              2.800000
##  9 30041    10    11    12              2.800000              1.857143
## 10 30905    16    17    18              1.400000              2.000000
## # ... with 57 more rows, and 50 more variables:
## #   Animal_MClusterSize_3 <dbl>, Animal_Switches_1 <dbl>,
## #   Animal_Switches_2 <dbl>, Animal_Switches_3 <dbl>,
## #   Animal_TotalCorrect_1 <dbl>, Animal_TotalCorrect_2 <dbl>,
## #   Animal_TotalCorrect_3 <dbl>, Animal_TotalUtterances_1 <dbl>,
## #   Animal_TotalUtterances_2 <dbl>, Animal_TotalUtterances_3 <dbl>,
## #   Baseline <dbl>, F_MClusterSize_1 <dbl>, F_MClusterSize_2 <dbl>,
## #   F_MClusterSize_3 <dbl>, F_Switches_1 <dbl>, F_Switches_2 <dbl>,
## #   F_Switches_3 <dbl>, F_TotalCorrect_1 <dbl>, F_TotalCorrect_2 <dbl>,
…
mydata_dob2 <- mydata_dob %>%
  select(IDNUMBER, GENDER, GROUP, L1dob, L1age, L1dot,
         L2dob, L2age, L2dot, L3dob, L3age, L3dot) %>%
  mutate_at(c(4, 6, 7, 9, 10, 12), as.character) %>%
  rename(ID2 = IDNUMBER, L1_dob = L1dob, L1_age = L1age, L1_dot = L1dot,
         L2_dob = L2dob, L2_age = L2age, L2_dot = L2dot, L3_dob = L3dob, L3_age = L3age, L3_dot = L3dot)

mydata_merged <- left_join(mydata_wide, mydata_dob2)

## Joining, by = "ID2"

mydata_merged <- as_tibble(mydata_merged)
mydata_merged

## # A tibble: 68 x 54
##      ID2 L1_animal_TotalCorrect L1_animal_TotalUtterances
##    <int>                  <int>                     <int>
##  1 10588                     34                        37
##  2 16800                     12                        12
##  3 17555                     17                        19
##  4 17910                     19                        22
##  5 18709                     25                        32
##  6 22162                     12                        15
##  7 25082                     15                        17
##  8 30025                     19                        22
##  9 30041                     14                        19
## 10 30905                     12                        15
## # ... with 58 more rows, and 51 more variables:
## #   L1_food_TotalCorrect <int>, L1_food_TotalUtterances <int>,
## #   L1_S_TotalCorrect <int>, L1_S_TotalUtterances <int>,
## #   L1_f_TotalCorrect <int>, L1_f_TotalUtterances <int>,
## #   L2_animal_TotalCorrect <int>, L2_animal_TotalUtterances <int>,
## #   L2_food_TotalCorrect <int>, L2_food_TotalUtterances <int>,
## #   L2_S_TotalCorrect <int>, L2_S_TotalUtterances <int>,
## #   L2_f_TotalCorrect <int>, L2_f_TotalUtterances <int>,
## #   L3_animal_TotalCorrect <int>, L3_animal_TotalUtterances <int>,
…
wide_to_long2 <- mydata_merged %>%
  gather(-ID2, -GENDER, -GROUP, key = "timepoint", value = "value") %>%
  separate(timepoint, into = c("Omit", "Timepoint", "Omit2", "Variable"), sep = c(1,2, 3)) %>%
  select(-Omit, -Omit2) %>%
  spread(key = Variable, value = value) %>%
  drop_na() %>%
  mutate(dob = mdy(dob), dot = mdy(dot)) 

wide_to_long2 <- wide_to_long2[1:200, ]
wide_to_long2 <- as_tibble(wide_to_long2)
wide_to_long2

## # A tibble: 200 x 21
##      ID2 GENDER GROUP Timepoint              age all_TC all_TU
##    <int>  <int> <int>     <chr>            <chr>  <chr>  <chr>
##  1 10588      1     2         1 18.9189530057522  23.75   26.5
##  2 10588      1     2         2               20     28   31.5
##  3 16800      2     2         1 8.58334553878917  11.25   12.5
##  4 16800      2     2         2               10  16.75   20.5
##  5 16800      2     2         3               11   26.5     34
##  6 17555      2     2         1 17.5636879206802  20.25   22.5
##  7 17555      2     2         2               18  17.75  20.25
##  8 17555      2     2         3               20     40     45
##  9 17910      1     1         1 11.5731424537358  14.25  17.75
## 10 17910      1     1         2               13     17     23
## # ... with 190 more rows, and 14 more variables:
## #   animal_TotalCorrect <chr>, animal_TotalUtterances <chr>, dob <date>,
## #   dot <date>, f_TotalCorrect <chr>, f_TotalUtterances <chr>,
## #   food_TotalCorrect <chr>, food_TotalUtterances <chr>, pho_TC <chr>,
## #   pho_TU <chr>, S_TotalCorrect <chr>, S_TotalUtterances <chr>,
## #   sem_TC <chr>, sem_TU <chr>
…
  wide_to_long_merged <- full_join(wide_to_long2, wide_to_long3)

## Joining, by = c("ID2", "GENDER", "GROUP", "Timepoint", "age", "dob", "dot")

  wide_to_long_merged <- as_tibble(wide_to_long_merged)
  wide_to_long_merged

## # A tibble: 272 x 22
##      ID2 GENDER GROUP Timepoint              age all_TC all_TU
##    <int>  <int> <int>     <chr>            <chr>  <chr>  <chr>
##  1 10588      1     2         1 18.9189530057522  23.75   26.5
##  2 10588      1     2         2               20     28   31.5
##  3 16800      2     2         1 8.58334553878917  11.25   12.5
##  4 16800      2     2         2               10  16.75   20.5
##  5 16800      2     2         3               11   26.5     34
##  6 17555      2     2         1 17.5636879206802  20.25   22.5
##  7 17555      2     2         2               18  17.75  20.25
##  8 17555      2     2         3               20     40     45
##  9 17910      1     1         1 11.5731424537358  14.25  17.75
## 10 17910      1     1         2               13     17     23
## # ... with 262 more rows, and 15 more variables:
## #   animal_TotalCorrect <chr>, animal_TotalUtterances <chr>, dob <date>,
## #   dot <date>, f_TotalCorrect <chr>, f_TotalUtterances <chr>,
## #   food_TotalCorrect <chr>, food_TotalUtterances <chr>, pho_TC <chr>,
## #   pho_TU <chr>, S_TotalCorrect <chr>, S_TotalUtterances <chr>,
## #   sem_TC <chr>, sem_TU <chr>, baselinedate <date>
…
