Week #2: MLM
…
wide_to_long_merged <- full_join(wide_to_long2, wide_to_long3)

## Joining, by = c("ID2", "GENDER", "GROUP", "Timepoint", "age", "dob", "dot")

wide_to_long_merged <- as_tibble(wide_to_long_merged)
wide_to_long_merged

## # A tibble: 272 x 22
##      ID2 GENDER GROUP Timepoint              age all_TC all_TU
##    <int>  <int> <int>     <chr>            <chr>  <chr>  <chr>
##  1 10588      1     2         1 18.9189530057522  23.75   26.5
##  2 10588      1     2         2               20     28   31.5
##  3 16800      2     2         1 8.58334553878917  11.25   12.5
##  4 16800      2     2         2               10  16.75   20.5
##  5 16800      2     2         3               11   26.5     34
##  6 17555      2     2         1 17.5636879206802  20.25   22.5
##  7 17555      2     2         2               18  17.75  20.25
##  8 17555      2     2         3               20     40     45
##  9 17910      1     1         1 11.5731424537358  14.25  17.75
## 10 17910      1     1         2               13     17     23
## # ... with 262 more rows, and 15 more variables:
## #   animal_TotalCorrect <chr>, animal_TotalUtterances <chr>, dob <date>,
## #   dot <date>, f_TotalCorrect <chr>, f_TotalUtterances <chr>,
## #   food_TotalCorrect <chr>, food_TotalUtterances <chr>, pho_TC <chr>,
## #   pho_TU <chr>, S_TotalCorrect <chr>, S_TotalUtterances <chr>,
## #   sem_TC <chr>, sem_TU <chr>, baselinedate <date>
…
